%YAML 1.1
%TAG !u! tag:unity3d.com,2011:
--- !u!114 &11400000
MonoBehaviour:
  m_ObjectHideFlags: 0
  m_CorrespondingSourceObject: {fileID: 0}
  m_PrefabInstance: {fileID: 0}
  m_PrefabAsset: {fileID: 0}
  m_GameObject: {fileID: 0}
  m_Enabled: 1
  m_EditorHideFlags: 0
  m_Script: {fileID: 11500000, guid: 321669396bfb32240a75aad0552b0d7d, type: 3}
  m_Name: Dialogo1
  m_EditorClassIdentifier: 
  leftProfile: {fileID: 11400000, guid: 27a63a63a8ba867458237377f9701be9, type: 2}
  rightProfile: {fileID: 0}
  paragraphs:
  - name: HOLA,_ME_LLAMO_JUAN <-
    paragraphType: 0
    simpleText: "Hola, me llamo Juan, \xA1mucho gusto! Da clic o presiona barra espaciadora
      para continuar."
    decision:
      questionText: "\xBFYa editaste esta pregunta?"
      possibleAnswers:
      - answerText: Yes
        answerEvent:
          m_PersistentCalls:
            m_Calls: []
      - answerText: Yes
        answerEvent:
          m_PersistentCalls:
            m_Calls: []
    side: 0
    playExpressionAudio: 0
    expressionIndex: 0
    animate: 0
    animationIndex: 0
    changeSpeaker: 0
    newSpeakerProfile: {fileID: 0}
    newSpeakerSide: 0
  - name: BIENVENIDO_AL_SISTE <-
    paragraphType: 0
    simpleText: "Bienvenido al sistema de di\xE1logos. Comenzar\xE9 explic\xE1ndote
      c\xF3mo armar di\xE1logos."
    decision:
      questionText: "\xBFYa editaste esta pregunta?"
      possibleAnswers:
      - answerText: Yes
        answerEvent:
          m_PersistentCalls:
            m_Calls: []
      - answerText: Yes
        answerEvent:
          m_PersistentCalls:
            m_Calls: []
    side: 0
    playExpressionAudio: 0
    expressionIndex: 0
    animate: 0
    animationIndex: 0
    changeSpeaker: 0
    newSpeakerProfile: {fileID: 0}
    newSpeakerSide: 0
  - name: "CADA_DI\xC1LOGO_QUE_OC <-"
    paragraphType: 0
    simpleText: "Cada di\xE1logo que ocurra en tu juego, estar\xE1 definido en una
      DialogueData. Puedes ver las DialogueDatas que ya hay en este proyecto en la
      carpeta Assets/Data/DialogueData."
    decision:
      questionText: "\xBFYa editaste esta pregunta?"
      possibleAnswers:
      - answerText: Yes
        answerEvent:
          m_PersistentCalls:
            m_Calls: []
      - answerText: Yes
        answerEvent:
          m_PersistentCalls:
            m_Calls: []
    side: 0
    playExpressionAudio: 0
    expressionIndex: 0
    animate: 0
    animationIndex: 0
    changeSpeaker: 0
    newSpeakerProfile: {fileID: 0}
    newSpeakerSide: 0
  - name: AL_ABRIR_UNA_DIALOG <-
    paragraphType: 0
    simpleText: "Al abrir una DialogueData, ver\xE1s que tiene un mont\xF3n de cosas.
      No te asustes, el profe y yo te explicaremos todas."
    decision:
      questionText: "\xBFYa editaste esta pregunta?"
      possibleAnswers:
      - answerText: Yes
        answerEvent:
          m_PersistentCalls:
            m_Calls: []
      - answerText: Yes
        answerEvent:
          m_PersistentCalls:
            m_Calls: []
    side: 0
    playExpressionAudio: 0
    expressionIndex: 0
    animate: 0
    animationIndex: 0
    changeSpeaker: 0
    newSpeakerProfile: {fileID: 0}
    newSpeakerSide: 0
  - name: MI_AMIGA_PAULINA_TA <-
    paragraphType: 0
    simpleText: "Mi amiga Paulina tambi\xE9n me ayudar\xE1 a explicarte esta herramienta."
    decision:
      questionText: "\xBFYa editaste esta pregunta?"
      possibleAnswers:
      - answerText: Yes
        answerEvent:
          m_PersistentCalls:
            m_Calls: []
      - answerText: Yes
        answerEvent:
          m_PersistentCalls:
            m_Calls: []
    side: 0
    playExpressionAudio: 0
    expressionIndex: 0
    animate: 0
    animationIndex: 0
    changeSpeaker: 0
    newSpeakerProfile: {fileID: 0}
    newSpeakerSide: 1
  - name: "AQU\xCD_PAULINA,_\xA1BIEN -> (CS)"
    paragraphType: 0
    simpleText: "Aqu\xED Paulina, \xA1bienvenidos!"
    decision:
      questionText: "\xBFYa editaste esta pregunta?"
      possibleAnswers:
      - answerText: Yes
        answerEvent:
          m_PersistentCalls:
            m_Calls: []
      - answerText: Yes
        answerEvent:
          m_PersistentCalls:
            m_Calls: []
    side: 1
    playExpressionAudio: 0
    expressionIndex: 0
    animate: 0
    animationIndex: 0
    changeSpeaker: 1
    newSpeakerProfile: {fileID: 11400000, guid: 0ad913eae24a52b41ac119d787234e76, type: 2}
    newSpeakerSide: 1
  - name: COMO_VEN,_PUEDE_HAB ->
    paragraphType: 0
    simpleText: "Como ven, puede haber dos personajes en un mismo di\xE1logo."
    decision:
      questionText: "\xBFYa editaste esta pregunta?"
      possibleAnswers:
      - answerText: Yes
        answerEvent:
          m_PersistentCalls:
            m_Calls: []
      - answerText: Yes
        answerEvent:
          m_PersistentCalls:
            m_Calls: []
    side: 1
    playExpressionAudio: 0
    expressionIndex: 0
    animate: 0
    animationIndex: 0
    changeSpeaker: 0
    newSpeakerProfile: {fileID: 0}
    newSpeakerSide: 0
  - name: "TAMBI\xC9N_PUEDES_PROG ->"
    paragraphType: 1
    simpleText: 
    decision:
      questionText: "Tambi\xE9n puedes programar decisiones que el jugador puede
        tomar, \xBFquieres que te cuente m\xE1s sobre ellas?"
      possibleAnswers:
      - answerText: "S\xED"
        answerEvent:
          m_PersistentCalls:
            m_Calls:
            - m_Target: {fileID: 11400000, guid: b54dfce281478654289f09c21c1471ed, type: 2}
              m_TargetAssemblyTypeName: DialogueData, Assembly-CSharp
              m_MethodName: OpenSelf
              m_Mode: 1
              m_Arguments:
                m_ObjectArgument: {fileID: 0}
                m_ObjectArgumentAssemblyTypeName: UnityEngine.Object, UnityEngine
                m_IntArgument: 0
                m_FloatArgument: 0
                m_StringArgument: 
                m_BoolArgument: 0
              m_CallState: 2
      - answerText: No
        answerEvent:
          m_PersistentCalls:
            m_Calls:
            - m_Target: {fileID: 11400000, guid: 0832771f9e4a04045a183a4885154490, type: 2}
              m_TargetAssemblyTypeName: DialogueData, Assembly-CSharp
              m_MethodName: OpenSelf
              m_Mode: 1
              m_Arguments:
                m_ObjectArgument: {fileID: 0}
                m_ObjectArgumentAssemblyTypeName: UnityEngine.Object, UnityEngine
                m_IntArgument: 0
                m_FloatArgument: 0
                m_StringArgument: 
                m_BoolArgument: 0
              m_CallState: 2
    side: 1
    playExpressionAudio: 0
    expressionIndex: 0
    animate: 0
    animationIndex: 0
    changeSpeaker: 0
    newSpeakerProfile: {fileID: 0}
    newSpeakerSide: 0
